"V1","V2","V3","V4","V5","V6","V7","V8","V9"
1,1,27,1,2,5,3,6,5
1,1,14,1,1,3,3,6,5
1,1,27,1,2,5,3,6,5
1,2,17,1,2,3,3,6,5
5,1,46,1,2,4,1,1,2
1,1,12,1,2,3,3,6,5
2,2,12,1,2,2,3,6,5
1,2,30,1,1,2,3,6,5
2,1,27,1,1,4,3,6,5
1,1,7,1,1,2,3,6,5
2,2,10,1,1,2,3,6,5
1,2,33,1,1,3,3,7,5
2,1,31,1,1,4,3,6,5
1,2,35,1,3,2,3,7,5
2,1,33,1,3,2,3,6,5
5,2,72,1,3,4,1,2,4
1,1,28,1,3,3,3,6,5
1,2,50,1,3,5,2,5,2
2,1,46,1,3,5,2,5,2
1,1,30,1,3,5,3,6,5
2,2,32,1,3,3,3,6,5
1,1,26,1,1,2,3,6,5
2,2,32,1,1,2,3,7,5
1,1,40,1,1,3,1,1,2
2,2,43,1,1,5,1,2,4
1,1,32,1,1,3,3,6,5
2,2,35,1,1,3,1,1,4
1,1,21,1,2,2,3,6,5
2,2,24,1,2,2,3,6,5
5,1,59,1,2,4,1,1,2
1,1,13,1,2,3,3,6,5
1,2,42,1,1,5,3,7,5
2,1,38,1,1,5,1,1,2
5,2,65,1,1,7,1,2,3
5,2,66,1,1,7,1,2,3
5,1,71,1,1,6,3,7,5
1,2,39,1,2,5,1,2,4
1,1,19,1,2,3,3,6,5
1,1,26,1,2,5,3,6,5
2,2,21,1,2,2,3,6,5
1,2,51,1,2,4,1,2,3
2,1,50,1,2,5,1,2,4
1,1,12,1,2,5,3,6,5
1,1,26,1,2,3,3,6,5
2,2,25,1,2,3,3,6,5
9,2,13,1,2,2,3,6,5
1,2,33,1,3,1,3,6,5
1,1,55,1,3,5,2,5,4
1,1,32,1,1,4,3,6,5
2,2,30,1,1,3,3,6,5
5,1,62,1,1,5,1,1,4
5,2,63,1,1,5,1,2,4
5,2,65,1,1,5,1,2,4
1,1,20,1,1,2,3,6,5
2,2,24,1,1,2,3,6,5
1,1,12,1,1,2,3,6,5
2,2,19,1,1,2,3,6,5
1,1,12,1,1,2,3,6,5
2,2,10,1,1,2,3,6,5
1,1,46,1,1,5,1,2,4
2,2,50,1,1,5,1,3,3
5,2,72,1,1,5,1,1,4
1,1,31,1,1,2,3,6,5
5,2,62,1,1,5,1,1,4
1,2,39,1,1,5,1,2,3
1,1,12,1,1,2,3,6,5
1,1,32,1,1,4,2,5,3
2,2,34,1,1,4,2,5,4
1,1,20,1,1,2,3,6,5
5,1,41,1,1,5,3,7,5
1,1,29,1,1,3,3,6,5
1,1,29,1,1,3,3,6,5
2,2,30,1,1,2,3,6,5
1,2,18,1,1,2,3,6,5
5,2,57,1,1,2,1,1,2
1,2,41,1,1,4,3,6,5
2,1,41,1,1,3,1,1,2
1,2,9,1,1,2,3,6,5
1,1,59,1,1,3,1,1,2
2,2,56,1,1,3,1,1,2
1,1,50,1,3,7,1,3,4
2,2,50,1,3,5,1,3,4
1,2,19,1,2,2,3,6,5
1,1,16,1,2,3,3,6,5
2,2,19,1,2,2,3,6,5
1,1,56,2,2,2,1,1,2
1,1,25,1,2,3,3,6,5
2,2,30,1,2,4,3,6,5
1,2,40,1,2,3,3,6,5
1,1,52,1,2,5,1,2,3
2,2,56,1,2,5,1,2,4
1,2,24,1,2,4,3,6,5
1,2,45,1,2,3,3,7,5
2,1,51,1,2,3,1,2,3
1,1,23,1,2,5,2,4,4
1,2,46,1,2,5,1,2,4
8,1,59,1,2,7,1,2,4
1,1,39,1,2,3,3,6,5
2,2,39,1,2,3,2,5,1
5,1,62,1,2,7,1,2,4
1,2,6,1,2,2,3,6,5
1,1,40,1,2,5,2,5,4
2,2,41,1,2,3,2,5,4
1,2,26,1,2,3,3,6,5
1,1,21,1,2,3,3,6,5
2,2,28,1,2,3,3,6,5
1,1,46,1,2,5,2,5,4
3,2,17,1,2,2,3,6,5
9,1,51,1,2,5,2,5,4
1,1,44,1,2,5,1,3,4
2,2,53,1,2,5,1,2,4
1,2,3,1,1,2,3,6,5
1,1,15,1,1,2,3,6,5
1,1,14,1,1,2,3,6,5
2,2,15,1,1,2,3,6,5
1,2,21,1,1,4,3,6,5
1,1,18,1,1,2,3,6,5
5,2,44,1,1,5,1,2,3
1,1,18,1,1,2,3,6,5
2,2,24,1,1,2,3,6,5
1,2,39,1,1,7,1,2,3
2,1,33,1,1,5,1,2,2
1,2,30,1,3,3,3,6,5
5,1,60,1,3,5,1,1,2
1,1,39,1,2,5,2,4,2
1,1,42,1,3,7,2,4,4
2,2,44,1,3,3,1,1,4
1,1,52,1,3,5,1,3,3
1,2,52,1,2,5,1,2,4
2,1,50,1,2,3,1,2,4
1,2,43,1,3,4,1,1,3
1,2,49,1,1,4,1,1,2
1,1,35,1,2,5,1,3,4
2,2,37,1,2,3,3,6,5
1,2,11,1,1,2,3,6,5
1,1,23,1,1,4,3,6,5
5,1,58,1,1,4,1,1,2
1,1,32,1,3,7,1,2,3
1,1,49,1,3,7,1,2,2
2,2,53,1,3,7,1,2,3
1,2,38,1,3,7,1,3,4
1,1,18,1,3,4,3,6,5
1,1,23,1,3,3,3,6,5
2,2,32,1,3,5,3,7,5
1,2,51,1,1,5,1,2,3
2,1,49,1,1,4,2,4,4
1,2,17,1,1,2,3,6,5
1,2,51,1,1,5,1,2,3
2,1,50,1,1,5,1,3,2
1,1,30,1,1,5,3,6,5
5,1,57,1,1,5,2,4,4
5,2,62,1,1,5,1,2,4
1,1,44,1,1,5,2,4,2
5,2,68,1,1,2,1,2,4
1,1,60,1,2,5,1,3,4
2,2,65,1,2,5,1,2,4
1,1,55,1,1,5,1,1,2
2,2,61,1,1,5,3,7,5
1,2,5,1,1,2,3,6,5
1,2,13,1,1,2,3,6,5
1,1,20,1,1,3,3,6,5
1,1,59,1,2,5,1,1,4
2,2,62,1,2,5,1,1,4
1,2,12,1,1,2,3,6,5
1,1,13,1,1,3,3,6,5
2,2,17,1,1,2,3,6,5
1,2,2,1,1,2,3,6,5
1,2,1,1,2,2,3,6,5
1,2,12,1,2,3,3,6,5
1,2,13,1,3,2,3,6,5
1,1,54,1,3,5,1,2,4
2,2,56,1,3,5,3,7,5
1,2,49,1,3,6,1,2,3
1,2,55,1,1,3,1,1,2
2,1,50,1,1,2,1,2,3
1,1,52,1,1,3,1,1,2
1,1,44,1,3,7,1,2,3
2,2,47,1,3,5,1,2,3
3,2,15,1,3,5,3,6,5
1,1,22,1,3,5,3,6,5
1,1,54,1,1,4,1,1,2
1,2,33,1,1,7,3,6,5
5,1,71,1,1,7,3,7,5
1,1,27,1,1,3,3,6,5
2,2,32,1,1,3,3,6,5
1,1,52,1,1,4,1,2,3
2,2,64,1,1,7,2,4,4
1,1,14,1,1,2,3,6,5
2,2,19,1,1,2,3,6,5
1,1,60,1,2,5,1,2,2
2,2,60,1,2,5,1,2,2
1,1,35,1,1,3,3,6,5
1,1,28,1,3,5,3,6,5
2,2,35,1,3,7,3,6,5
1,1,14,1,2,2,3,6,5
2,2,15,1,2,2,3,6,5
1,2,44,1,2,5,1,1,4
2,1,43,1,2,5,1,1,4
1,1,19,1,1,2,3,6,5
1,2,40,1,1,5,3,6,5
2,1,35,1,1,3,3,6,5
5,1,71,1,1,5,1,1,2
1,2,22,1,2,4,3,6,5
1,1,28,1,1,2,3,6,5
2,2,31,1,1,3,3,6,5
1,1,43,1,1,3,1,1,2
2,2,45,1,1,3,1,1,2
1,1,35,1,1,5,2,5,3
1,1,43,1,1,5,3,7,5
1,1,52,1,1,3,1,1,2
1,2,55,1,1,3,1,1,2
2,1,44,1,1,2,1,1,2
1,1,47,1,1,5,1,1,2
1,2,57,1,2,7,1,3,3
1,1,32,1,1,5,3,6,5
2,2,32,1,1,7,1,2,3
1,1,42,1,1,3,2,5,4
2,2,47,1,1,3,2,5,4
5,1,71,1,1,7,1,1,4
9,1,30,1,1,2,3,6,5
1,2,59,1,1,5,2,4,4
2,1,60,1,1,5,2,5,4
1,1,55,2,1,2,1,1,2
1,1,45,1,1,3,1,1,4
2,2,55,1,1,3,1,1,4
1,1,35,1,1,3,1,1,2
1,1,9,1,1,2,3,6,5
2,2,21,1,1,2,3,6,5
1,1,36,1,1,7,2,4,2
2,2,42,1,1,7,2,4,3
5,2,72,1,1,5,1,2,2
1,1,23,1,3,5,3,6,5
2,2,21,1,3,3,3,6,5
1,1,52,1,1,5,1,2,4
2,2,61,1,1,4,1,2,3
1,2,10,1,1,5,3,6,5
1,1,25,1,1,3,3,6,5
2,2,28,1,1,3,3,6,5
1,2,29,1,1,2,3,6,5
1,1,43,1,1,5,1,3,2
2,2,47,1,1,7,1,2,3
1,1,48,1,2,5,1,2,3
1,2,54,1,1,3,1,1,3
1,1,45,1,1,4,2,5,4
1,1,47,2,1,6,2,5,2
2,2,52,2,1,3,1,1,4
1,1,32,1,1,3,3,6,5
2,2,39,1,1,3,1,1,2
6,2,68,1,1,5,1,2,4
1,2,30,1,1,3,3,6,5
5,2,68,1,1,5,1,1,4
1,2,48,1,1,3,3,7,5
1,1,54,1,1,3,2,4,4
2,2,58,1,1,4,2,5,4
1,2,26,1,1,3,3,6,5
1,1,8,1,1,2,3,6,5
1,2,48,1,1,3,1,1,4
1,2,9,1,1,2,3,6,5
1,1,56,1,3,5,1,2,4
2,2,63,1,3,5,1,2,3
5,2,77,1,3,1,3,7,5
1,1,23,1,3,4,3,6,5
2,2,33,1,3,3,3,6,5
1,1,21,1,3,3,3,6,5
1,1,45,1,3,7,1,3,3
1,1,54,1,3,5,1,2,4
2,2,53,1,3,7,1,2,3
1,1,21,1,3,2,3,6,5
1,1,36,1,3,3,2,4,4
3,2,7,1,3,3,3,6,5
1,1,56,1,3,5,1,3,3
2,2,57,1,3,7,1,2,4
1,1,42,1,1,7,1,3,3
2,2,45,1,1,5,1,2,4
1,1,16,1,1,2,3,6,5
2,2,15,1,1,2,3,7,5
1,1,50,1,1,3,2,5,2
1,1,28,1,1,7,3,6,5
2,2,29,1,1,2,3,6,5
1,1,26,1,1,4,3,6,5
1,2,12,1,1,2,3,6,5
2,1,28,1,1,2,3,6,5
1,1,62,2,1,2,1,1,2
1,1,31,1,1,3,3,6,5
1,1,53,1,1,5,2,5,4
2,2,56,1,1,5,1,2,2
1,2,25,1,1,5,3,6,5
1,1,16,1,1,2,3,6,5
2,2,24,1,1,2,3,7,5
1,2,12,1,1,2,3,6,5
1,1,65,1,1,5,1,1,2
1,2,17,1,1,2,3,6,5
1,1,54,1,1,3,1,1,2
9,1,52,1,1,3,1,1,2
1,1,42,1,1,3,1,1,2
2,2,44,1,1,3,1,1,4
5,1,68,1,1,5,1,1,2
1,1,33,1,1,4,3,6,5
2,2,36,1,1,3,3,6,5
3,2,11,1,1,2,3,6,5
1,1,61,1,1,3,1,1,2
2,2,58,1,1,5,1,1,2
1,1,69,1,1,5,2,5,2
2,2,70,1,1,3,1,1,2
1,1,42,1,1,3,2,5,2
2,2,57,1,1,3,2,5,2
5,2,73,1,1,5,1,2,4
1,1,49,1,1,3,1,1,2
2,2,49,1,1,3,1,1,2
1,1,56,2,1,7,3,7,5
2,2,67,2,1,5,1,1,2
1,1,39,1,1,3,1,1,2
1,2,11,1,1,7,3,6,5
1,1,25,1,1,3,3,6,5
1,1,71,1,1,6,2,5,4
1,1,62,1,1,5,1,1,2
2,2,65,1,1,5,1,1,3
1,1,48,1,1,5,2,5,4
2,2,55,1,1,5,1,2,3
1,1,37,1,1,4,3,6,5
5,2,72,1,1,5,1,2,2
1,1,25,1,1,3,2,5,4
2,2,27,1,1,7,2,5,4
1,2,8,1,1,2,3,6,5
1,1,48,1,1,3,2,4,4
2,2,56,1,1,5,2,4,4
1,1,36,1,1,7,2,5,1
2,2,43,1,1,5,2,5,1
1,2,26,1,1,4,3,6,5
1,1,36,1,1,5,1,2,3
3,2,9,1,1,2,3,6,5
1,1,58,1,1,7,1,3,3
2,2,57,1,1,7,1,3,3
1,1,43,1,1,7,1,3,3
1,1,21,1,1,5,3,6,5
5,2,52,1,1,5,1,2,3
1,2,62,2,1,3,3,7,5
2,1,55,2,1,3,1,1,2
1,2,46,1,1,4,1,1,2
5,1,72,1,1,5,1,2,2
1,2,61,1,2,5,3,7,5
2,1,55,1,2,5,1,2,3
1,2,64,1,2,7,1,2,3
2,1,55,1,2,7,1,3,3
1,1,36,1,1,5,2,4,4
1,1,64,2,1,5,1,1,2
1,1,31,1,1,3,3,6,5
2,2,28,1,1,2,3,6,5
1,1,50,2,1,4,1,1,2
1,1,57,1,1,7,2,4,2
2,2,59,1,1,7,1,3,3
1,1,67,1,1,5,1,2,3
1,1,39,1,1,3,3,6,5
5,1,65,1,1,4,1,1,2
5,2,69,1,1,5,1,2,3
1,1,57,1,1,7,2,4,4
1,1,27,1,1,2,3,6,5
1,1,45,1,1,5,2,5,1
2,2,47,1,1,3,1,1,2
5,2,75,1,1,3,1,1,4
1,1,34,1,1,3,3,6,5
2,2,51,1,1,3,1,1,4
5,2,72,1,1,5,3,7,5
1,1,59,1,1,5,1,2,3
2,2,68,1,1,5,1,1,4
1,1,52,1,3,4,1,1,2
2,2,62,1,3,5,1,2,4
3,1,12,1,3,2,3,6,5
3,2,18,1,3,2,3,6,5
1,1,49,2,3,5,1,1,4
2,2,60,2,3,5,1,1,2
1,1,56,1,3,4,1,1,2
1,1,4,1,3,5,3,6,5
2,2,13,1,3,5,3,6,5
1,1,69,2,3,4,1,1,2
1,1,20,1,3,2,3,6,5
1,2,67,2,3,5,1,2,3
1,1,19,1,3,2,3,6,5
1,1,48,1,3,2,1,1,4
5,1,72,1,3,2,1,1,2
1,1,46,1,3,5,2,4,4
2,2,49,1,3,5,1,2,3
1,1,14,1,3,2,3,6,5
2,2,23,1,3,2,3,6,5
1,2,51,1,3,5,1,2,3
2,1,47,1,3,4,1,1,3
1,1,56,1,3,3,2,5,4
2,2,52,1,3,4,1,1,2
1,1,65,1,3,3,1,1,2
1,1,53,1,1,3,1,2,3
2,2,62,1,1,3,1,1,4
1,1,48,1,1,4,1,2,4
2,2,52,1,1,4,1,1,2
1,1,55,1,1,5,1,1,2
2,2,63,1,1,5,1,1,2
1,1,42,1,1,3,2,5,2
2,2,42,1,1,3,1,1,3
5,1,69,1,1,5,2,4,2
5,2,72,1,1,5,1,2,4
1,1,19,1,1,2,3,6,5
2,2,26,1,1,2,3,6,5
1,1,35,1,1,5,3,6,5
1,2,19,1,1,2,3,6,5
1,1,39,1,1,3,1,3,2
2,2,41,1,1,5,2,4,2
5,1,68,1,1,5,1,1,1
5,2,72,1,1,5,3,7,5
1,1,54,1,1,3,2,4,2
1,1,13,1,1,2,3,6,5
2,2,19,1,1,2,3,6,5
1,1,22,1,1,2,3,6,5
1,1,55,1,1,3,1,1,2
2,2,60,1,1,3,1,1,2
1,2,27,1,1,3,3,7,5
1,2,9,1,1,2,3,6,5
5,2,33,1,1,4,1,1,2
1,1,33,1,3,5,3,6,5
1,2,15,1,3,7,3,6,5
1,1,38,1,3,5,1,2,3
1,1,56,2,3,3,1,1,2
1,1,52,1,3,5,2,5,4
2,2,58,1,3,7,1,2,4
1,1,48,1,3,5,1,1,4
2,2,52,1,3,5,1,2,4
1,1,38,1,3,5,2,5,3
2,2,41,1,3,4,1,2,4
1,1,29,1,3,3,2,5,4
2,2,30,1,3,3,3,7,5
1,1,47,1,3,3,1,1,2
6,2,72,1,3,5,1,1,4
1,1,54,1,3,7,1,2,4
2,2,55,1,3,7,1,2,2
1,2,62,1,1,5,2,5,3
2,1,66,1,1,5,1,2,2
1,1,27,1,2,5,3,6,5
2,2,33,1,2,3,3,6,5
1,1,27,1,2,5,3,6,5
1,2,17,1,2,3,3,6,5
7,1,46,1,2,4,1,1,2
1,1,12,1,2,3,3,6,5
2,2,12,1,2,2,3,6,5
1,1,28,1,3,3,3,6,5
1,2,50,1,3,5,2,5,2
2,1,46,1,3,5,2,5,2
6,2,74,1,3,5,1,2,3
1,1,30,1,3,5,2,5,2
2,2,32,1,3,3,3,6,5
1,2,32,1,1,2,3,6,5
2,1,26,1,1,2,3,6,5
1,1,32,1,1,3,3,6,5
2,2,35,1,1,3,3,6,5
1,1,21,1,2,2,3,6,5
2,2,24,1,2,2,3,6,5
6,1,59,1,2,4,1,1,4
1,1,13,1,2,3,3,6,5
1,2,42,1,1,5,3,7,5
2,1,38,1,1,5,3,6,5
1,2,39,1,2,5,1,2,4
1,1,19,1,2,3,3,6,5
1,1,26,1,2,5,3,6,5
2,2,21,1,2,2,3,6,5
1,2,51,1,2,4,1,2,3
2,1,50,1,2,5,1,2,4
1,1,12,1,2,5,3,6,5
1,1,26,1,2,3,3,6,5
2,2,25,1,2,3,3,6,5
10,2,13,1,2,2,3,6,5
1,2,33,1,3,1,3,6,5
1,1,55,1,3,5,1,1,4
1,1,12,1,1,2,3,6,5
2,2,19,1,1,2,3,6,5
1,1,12,1,1,2,3,6,5
2,2,10,1,1,2,3,6,5
1,1,46,1,1,5,1,2,4
2,2,50,1,1,5,1,3,3
6,2,72,1,1,5,2,4,4
1,2,39,1,1,5,1,2,3
7,2,74,1,1,5,3,7,5
1,1,12,1,1,2,3,6,5
2,2,24,1,1,3,3,7,5
1,1,32,1,1,4,3,6,5
2,2,34,1,1,4,2,5,4
1,1,41,1,1,5,3,7,5
4,1,20,1,1,2,3,6,5
1,1,29,1,1,3,3,6,5
1,1,29,1,1,3,3,6,5
2,2,30,1,1,2,3,6,5
1,2,18,1,1,2,3,6,5
7,2,57,1,1,3,1,1,2
1,1,50,1,3,7,1,3,4
2,2,50,1,3,5,1,3,4
1,2,19,1,2,2,3,6,5
1,2,19,1,2,2,3,6,5
1,1,56,1,2,2,1,1,2
1,1,25,1,2,3,3,6,5
2,2,30,1,2,4,3,6,5
1,2,40,1,2,3,3,6,5
1,1,52,1,2,5,1,2,3
2,2,56,1,2,5,1,2,4
1,2,24,1,2,4,3,6,5
1,2,45,1,2,3,3,7,5
2,1,51,1,2,3,1,2,3
1,1,23,1,2,5,3,6,5
1,2,46,1,2,5,1,2,4
7,1,76,1,2,5,3,7,5
3,1,59,1,2,7,1,2,4
1,1,39,1,2,3,3,6,5
2,2,39,1,2,3,2,5,1
6,1,62,1,2,7,1,2,4
1,2,6,1,2,2,3,6,5
1,1,40,1,2,5,2,5,4
2,2,41,1,2,3,2,5,4
6,2,69,1,2,7,2,5,4
1,2,26,1,2,3,3,6,5
1,1,21,1,2,3,3,6,5
2,2,28,1,2,3,3,6,5
1,1,44,1,3,5,1,3,4
2,2,53,1,3,5,1,2,4
1,2,39,1,1,7,1,2,3
2,1,33,1,1,5,3,7,5
1,2,30,1,3,3,3,6,5
7,1,60,1,3,5,1,1,2
1,1,39,1,2,5,2,4,4
1,1,42,1,3,7,2,4,4
6,1,71,1,3,6,1,1,4
1,1,52,1,3,5,1,3,3
1,2,52,1,2,5,1,2,4
2,1,50,1,2,3,1,1,4
1,2,43,1,3,4,1,1,3
1,2,49,1,1,4,1,1,2
1,1,35,1,2,5,3,6,5
2,2,37,1,2,3,3,6,5
1,1,32,1,3,7,3,6,5
1,1,49,1,3,7,1,2,4
1,2,38,1,3,7,1,3,4
1,1,57,1,1,5,2,4,4
4,1,30,1,1,5,3,6,5
10,2,62,1,1,5,1,2,4
1,1,44,1,1,5,2,4,4
6,2,68,1,1,5,1,2,4
1,1,60,1,2,5,1,3,4
1,2,13,1,1,2,3,6,5
1,1,59,1,1,5,1,1,4
2,2,62,1,1,5,1,1,4
1,2,12,1,1,2,3,6,5
1,2,13,1,3,2,3,6,5
1,2,56,1,3,5,3,7,5
2,1,54,1,3,5,1,2,2
1,2,49,1,3,6,1,2,3
1,2,55,1,1,3,1,1,2
3,1,50,1,1,2,1,2,3
1,1,52,1,1,3,1,1,2
1,1,22,1,3,5,3,6,5
1,1,54,1,1,4,1,1,2
1,2,33,1,1,7,3,6,5
7,1,71,1,1,5,1,1,4
1,1,27,1,1,3,3,6,5
2,2,32,1,1,3,3,7,5
1,1,52,1,1,4,1,3,3
2,2,64,1,1,7,2,4,4
1,1,14,1,1,2,3,6,5
2,2,19,1,1,2,3,6,5
1,1,61,1,2,5,1,2,2
2,2,60,1,2,5,1,2,2
1,1,35,1,1,3,3,6,5
2,2,37,1,1,2,3,7,5
1,1,28,1,3,5,3,6,5
2,2,35,1,3,7,3,6,5
1,1,14,1,2,2,3,6,5
2,2,15,1,2,2,3,6,5
1,2,44,1,1,5,1,1,4
2,1,43,1,1,5,1,1,4
1,1,43,1,1,3,1,1,2
2,2,45,1,1,3,1,1,2
6,2,75,1,1,5,1,2,4
1,2,57,1,3,8,2,5,4
1,1,32,1,1,5,3,6,5
2,2,32,1,1,7,3,6,5
1,2,47,1,1,3,2,4,4
2,1,42,1,1,3,2,4,4
6,1,71,1,1,6,1,1,4
11,1,30,1,1,2,3,6,5
1,2,59,1,1,5,2,4,4
2,1,60,1,1,5,2,4,4
1,1,35,1,1,3,3,6,5
1,1,9,1,1,2,3,6,5
1,1,36,1,1,7,2,4,4
2,2,42,1,1,8,2,4,3
6,1,67,1,1,8,3,7,5
6,1,70,1,1,7,2,4,4
1,1,52,1,1,5,1,2,4
2,2,61,1,1,4,1,1,3
1,2,10,1,1,5,3,6,5
1,1,25,1,1,3,3,6,5
2,2,28,1,1,3,3,6,5
1,1,43,1,1,5,1,3,2
2,2,47,1,1,7,1,2,3
1,1,48,1,2,5,1,2,3
1,1,45,1,1,3,2,5,4
1,2,52,2,1,3,1,1,4
1,2,63,1,3,5,1,2,3
2,1,56,1,3,5,1,2,4
1,1,21,1,3,3,3,6,5
1,1,45,1,3,7,1,3,3
1,1,54,1,3,5,1,3,4
2,2,53,1,3,7,1,2,3
1,1,21,1,3,2,3,6,5
1,1,56,1,3,5,1,3,3
2,2,57,1,3,7,1,2,4
1,1,28,1,1,7,3,6,5
2,2,29,1,1,2,3,6,5
1,1,61,1,1,3,1,1,4
2,2,58,1,1,5,1,1,2
1,1,49,1,1,3,1,1,2
2,2,49,1,1,3,1,1,2
1,1,39,1,1,3,3,7,5
1,1,25,1,1,3,3,6,5
1,1,71,1,1,7,3,7,5
1,1,62,1,1,5,1,1,2
3,2,65,1,1,5,1,1,3
1,1,37,1,1,4,3,6,5
7,2,72,1,1,5,1,2,4
1,1,25,1,1,5,2,5,4
2,2,27,1,1,7,2,5,4
1,1,48,1,1,3,2,5,4
3,2,56,1,1,5,2,5,4
1,2,26,1,1,4,3,6,5
1,1,58,1,1,7,1,3,3
2,2,57,1,1,7,1,3,3
1,2,62,2,1,3,3,7,5
2,1,55,2,1,3,1,1,4
1,1,36,1,1,5,2,4,4
6,1,74,1,1,3,1,1,4
1,1,39,1,1,3,3,6,5
1,1,57,1,1,7,2,4,4
1,1,69,2,3,4,3,7,5
1,1,19,1,3,2,3,6,5
1,1,46,1,3,5,2,5,4
2,2,49,1,3,5,1,2,3
1,2,51,1,3,5,1,2,3
2,1,47,1,3,4,1,1,2
1,1,53,1,1,3,1,2,4
2,2,62,1,1,3,1,1,3
1,1,35,1,1,5,3,6,5
1,1,22,1,1,2,3,6,5
1,1,52,1,3,5,2,4,4
2,2,58,1,3,7,1,2,4
1,2,52,1,1,3,2,5,4
2,1,47,1,1,3,1,1,2
7,2,72,1,1,5,1,1,4
7,1,76,1,1,5,1,1,2
1,2,53,1,1,5,1,1,4
1,1,55,2,1,4,1,1,4
1,1,52,1,1,4,1,2,2
2,2,54,1,1,7,1,2,3
1,1,49,1,1,5,1,1,2
1,2,47,1,1,5,1,3,4
1,1,48,1,1,7,2,4,3
1,2,7,1,1,2,3,6,5
1,1,59,1,1,5,1,2,2
2,2,66,1,1,7,1,2,4
1,2,26,1,1,3,3,7,5
1,1,43,1,1,3,1,1,3
1,1,36,1,1,3,3,6,5
2,2,40,1,1,5,1,2,4
1,1,21,1,1,2,3,6,5
2,2,27,1,1,2,3,6,5
1,1,6,1,1,2,3,6,5
1,1,57,2,1,3,1,1,2
2,2,62,2,1,3,1,1,2
1,1,64,2,1,3,1,1,2
1,2,74,2,1,5,1,1,4
3,1,69,1,1,5,1,1,2
1,1,55,1,1,3,1,1,2
4,1,29,1,1,3,3,6,5
4,2,31,1,1,2,3,6,5
1,1,26,1,1,4,3,6,5
2,2,31,1,1,3,3,6,5
1,1,41,1,1,2,2,5,1
1,1,53,1,1,5,1,1,2
1,1,31,1,1,4,3,6,5
2,2,32,1,1,2,3,6,5
1,1,31,1,1,5,3,6,5
2,2,35,1,1,7,3,6,5
1,1,40,1,1,4,1,1,4
2,2,43,1,1,3,1,1,2
6,1,68,1,1,4,1,1,2
1,1,63,1,1,5,1,1,4
1,1,42,1,1,4,2,5,4
1,1,29,1,1,3,3,6,5
2,2,30,1,1,3,3,6,5
6,2,70,1,1,3,1,1,4
1,2,62,1,1,5,1,2,4
2,1,56,1,1,5,1,1,4
1,1,19,1,1,5,3,6,5
1,1,21,1,1,3,3,6,5
1,2,46,1,1,7,1,2,3
1,1,43,1,1,7,1,3,3
2,2,45,1,1,5,2,5,4
1,2,40,1,1,3,1,1,3
3,1,31,1,1,7,3,6,5
1,1,49,1,1,3,1,1,2
1,2,60,1,1,5,1,1,3
1,2,52,1,1,5,1,1,3
1,1,63,1,2,5,1,2,3
1,1,58,1,2,7,1,3,3
1,2,32,1,2,3,3,6,5
1,1,41,1,2,3,1,1,3
2,2,44,1,2,3,1,1,3
1,2,53,1,1,3,1,1,4
1,1,33,1,1,5,3,6,5
2,2,37,1,1,3,3,7,5
1,1,32,1,1,7,3,6,5
1,1,62,1,1,5,3,7,5
1,1,28,1,1,3,3,6,5
2,2,36,1,1,5,1,2,3
1,1,30,1,1,3,3,6,5
2,2,34,1,1,7,3,6,5
6,1,63,1,1,7,1,2,3
6,1,70,1,1,6,3,7,5
1,1,22,1,1,3,3,6,5
2,2,23,1,1,2,3,6,5
1,2,51,1,1,3,1,1,4
2,1,54,1,1,3,1,1,2
1,1,38,1,1,4,1,2,2
2,2,52,1,1,3,1,1,4
6,2,72,1,1,6,1,1,4
1,2,15,1,1,3,3,6,5
1,1,57,1,1,5,1,2,4
2,2,53,1,1,3,1,1,2
1,1,14,1,3,1,3,6,5
1,2,28,1,3,5,3,6,5
2,1,23,1,3,5,3,6,5
1,1,13,1,3,5,3,6,5
2,2,19,1,3,3,3,6,5
1,2,24,1,3,3,3,6,5
1,1,28,1,3,5,3,6,5
2,2,30,1,3,5,3,6,5
6,2,67,1,3,7,1,2,2
1,1,18,1,3,2,3,6,5
2,2,26,1,3,2,3,6,5
1,1,19,1,3,3,3,6,5
1,1,33,1,3,8,3,6,5
2,2,34,1,3,5,3,6,5
7,1,62,1,3,7,2,4,3
7,1,67,1,3,5,1,1,4
1,1,45,1,3,5,2,5,4
2,2,48,1,3,5,1,2,3
1,1,66,2,1,5,1,1,4
1,1,56,2,1,5,1,1,2
2,2,60,2,1,3,1,1,4
1,2,72,1,1,5,1,2,4
1,2,21,1,1,2,3,6,5
1,2,16,1,1,2,3,6,5
1,1,36,1,3,7,2,4,3
2,2,37,1,3,7,1,2,3
1,1,23,1,3,7,3,6,5
1,2,33,1,3,3,3,6,5
1,2,33,1,3,7,2,4,3
1,2,49,1,3,5,1,2,3
1,1,27,1,3,2,3,6,5
1,1,15,1,3,2,3,6,5
2,2,20,1,3,2,3,6,5
1,2,22,1,3,2,3,6,5
3,1,22,1,3,2,3,6,5
1,1,62,1,3,3,1,2,3
2,2,66,1,3,4,1,2,3
1,1,65,2,3,4,1,2,4
2,2,69,2,3,4,1,2,4
1,1,60,1,3,3,1,2,3
1,1,75,1,3,5,3,7,5
1,1,40,1,3,5,3,7,5
7,1,69,1,3,6,1,2,4
1,1,18,1,3,3,3,6,5
1,1,44,1,3,3,1,2,4
2,2,47,1,3,3,1,1,3
1,1,66,1,3,7,1,2,4
1,2,49,1,3,7,1,2,3
2,1,47,1,3,5,1,3,4
1,1,41,1,3,5,2,4,4
2,2,47,1,3,5,1,2,3
1,2,56,1,3,5,1,2,4
2,1,52,1,3,5,1,2,2
1,2,30,1,3,3,3,6,5
7,1,54,1,3,5,1,1,2
1,2,11,1,3,2,3,6,5
1,2,27,1,2,5,3,6,5
1,1,65,1,2,5,1,1,4
3,2,74,1,2,3,1,1,4
